﻿Id,Name,nFORCE__Conditional_Display_Criteria__c
a0M5e000000e4U0EAI,689,
a0M5e000000e4U1EAI,690,
a0M5e000000e4U2EAI,691,
a0M5e000000e4U3EAI,692,
a0M5e000000e4U4EAI,693,
a0M5e000000e4U5EAI,694,
a0M5e000000e4U6EAI,695,
a0M5e000000e4U7EAI,696,
a0M5e000000e4U8EAI,697,
a0M5e000000e4U9EAI,698,
a0M5e000000e4UAEAY,699,
a0M5e000000e4UBEAY,700,
a0M5e000000e4UCEAY,701,
a0M5e000000e4UDEAY,702,
a0M5e000000e4TyEAI,687,
a0M5e000000e4UEEAY,703,
a0M5e000000e4UFEAY,704,
a0M5e000000e4UGEAY,705,
a0M5e000000e4UHEAY,706,
a0M5e000000e4UIEAY,707,
a0M5e000000e4UJEAY,708,
a0M5e000000e4UKEAY,709,
a0M5e000000e4ULEAY,710,
a0M5e000000e4UMEAY,711,
a0M5e000000e4UNEAY,712,
a0M5e000000e4UOEAY,713,
a0M5e000000e4UPEAY,714,
a0M5e000000e4UQEAY,715,
a0M5e000000e4UREAY,721,
a0M5e000000e4USEAY,722,
a0M5e000000e4UTEAY,723,
a0M5e000000e4UUEAY,724,
a0M5e000000e4MkEAI,1678,
a0M5e000000e4MlEAI,1679,
a0M5e000000e4MmEAI,1680,
a0M5e000000e4MnEAI,1681,
a0M5e000000e4UWEAY,726,
a0M5e000000e4UXEAY,727,
a0M5e000000e4UYEAY,728,
a0M5e000000e4UZEAY,729,
a0M5e000000e4UaEAI,730,
a0M5e000000e4UbEAI,731,
a0M5e000000e4UcEAI,732,
a0M5e000000e4UdEAI,733,
a0M5e000000e4UeEAI,734,
a0M5e000000e4UfEAI,735,
a0M5e000000e4UgEAI,736,
a0M5e000000e4UhEAI,737,
a0M5e000000e4UiEAI,738,
a0M5e000000e4UjEAI,741,"{{IF=""A OR B""}}{{COND=""A"" FIELD=""LLC_BI__Loan__c.LLC_BI__Product_Reference__r.LLC_BI__Product_Feature__r.LLC_BI__Allow_Syndication__c"" IS=""TRUE""}}{{COND=""B"" FIELD=""LLC_BI__Loan__c.LLC_BI__Product_Reference__r.LLC_BI__Product_Feature__r.LLC_BI__Allow_Participation__c” IS=""TRUE""}}{{SHOW_ROUTE}}{{ENDIF}}"
a0M5e000000e4UkEAI,742,
a0M5e000000e4UVEAY,725,
a0M5e000000e4UlEAI,743,"{{IF=""A""}}{{COND=""A"" FIELD=""LLC_BI__Loan__c.LLC_BI__Is_Syndication__c"" IS=""TRUE""}}{{SHOW_ROUTE}}{{ENDIF}}"
a0M5e000000e4UmEAI,750,
a0M5e000000e4UnEAI,751,
a0M5e000000e4UoEAI,752,
a0M5e000000e4UpEAI,753,
a0M5e000000e4UqEAI,794,
a0M5e000000e4UrEAI,795,
a0M5e000000e4UsEAI,796,
a0M5e000000e4UtEAI,839,"{{IF=""A OR B""}}{{COND=""A"" FIELD=""LLC_BI__Loan__c.LLC_BI__Product_Reference__r.LLC_BI__Product_Feature__r.LLC_BI__Allow_Syndication__c"" IS=""TRUE""}}{{COND=""B"" FIELD=""LLC_BI__Loan__c.LLC_BI__Product_Reference__r.LLC_BI__Product_Feature__r.LLC_BI__Allow_Participation__c” IS=""TRUE""}}{{SHOW_ROUTE}}{{ENDIF}}"
a0M5e000000e4UuEAI,840,
a0M5e000000e4UvEAI,841,"{{IF=""A AND B""}}{{COND=""A"" FIELD=""LLC_BI__Loan__c.LLC_BI__Is_Booked__c"" IS=""TRUE""}}{{COND=""B"" FIELD=""LLC_BI__Loan__c.LLC_BI__Is_Syndication__c"" IS=""TRUE""}}{{SHOW_ROUTE}}{{ENDIF}}"
a0M5e000000e4UwEAI,842,
a0M5e000000e4UxEAI,843,
a0M5e000000e4UyEAI,844,
a0M5e000000e4MpEAI,1715,
a0M5e000000e4MqEAI,1716,
a0M5e000000e4MrEAI,1717,
a0M5e000000e4MsEAI,1718,
a0M5e000000e4MtEAI,1719,
a0M5e000000e4MuEAI,1720,
a0M5e000000e4MvEAI,1721,
a0M5e000000e4MwEAI,1722,
a0M5e000000e4MxEAI,1742,
a0M5e000000e4MyEAI,1743,
a0M5e000000e4MzEAI,1744,
a0M5e000000e4N0EAI,1745,
a0M5e000000e4N1EAI,1746,
a0M5e000000e4N2EAI,1747,
a0M5e000000e4N3EAI,1748,
a0M5e000000e4MoEAI,1714,
a0M5e000000e4N4EAI,1749,
a0M5e000000e4N5EAI,1750,
a0M5e000000e4N6EAI,1751,
a0M5e000000e4N7EAI,1752,
a0M5e000000e4N8EAI,1753,
a0M5e000000e4N9EAI,1754,
a0M5e000000e4NAEAY,1663,
a0M5e000000e4NBEAY,1664,
a0M5e000000e4NCEAY,1665,
a0M5e000000e4NDEAY,1666,
a0M5e000000e4NEEAY,1667,
a0M5e000000e4NFEAY,1668,
a0M5e000000e4NGEAY,1669,
a0M5e000000e4NHEAY,1670,
a0M5e000000e4NIEAY,1671,
a0M5e000000e4NJEAY,1672,
a0M5e000000e4NKEAY,1673,
a0M5e000000e4NLEAY,1674,
a0M5e000000e4V0EAI,846,
a0M5e000000e4V1EAI,847,
a0M5e000000e4V2EAI,848,
a0M5e000000e4V3EAI,849,
a0M5e000000e4V4EAI,850,
a0M5e000000e4V5EAI,851,
a0M5e000000e4V6EAI,852,"{{IF=""A""}}{{COND=""A"" FIELD=""LLC_BI__Loan__c.LLC_BI__Application__r.nPortal__Status__c"" NOT=""Offers Available""}}{{SHOW_ROUTE}}{{ENDIF}}"
a0M5e000000e4V7EAI,853,
a0M5e000000e4V8EAI,854,
a0M5e000000e4V9EAI,855,
a0M5e000000e4VAEAY,856,
a0M5e000000e4VBEAY,857,
a0M5e000000e4VCEAY,858,
a0M5e000000e4VDEAY,859,
a0M5e000000e4VEEAY,860,
a0M5e000000e4UzEAI,845,
a0M5e000000e4VFEAY,861,
a0M5e000000e4VGEAY,862,
a0M5e000000e4VHEAY,863,
a0M5e000000e4VIEAY,864,
a0M5e000000e4VJEAY,865,
a0M5e000000e4VKEAY,866,
a0M5e000000e4VLEAY,867,"{{IF=""A""}}{{COND=""A"" FIELD=""LLC_BI__Loan__c.LLC_BI__Application__r.nPortal__Status__c"" NOT=""Offers Available""}}{{SHOW_ROUTE}}{{ENDIF}}"
a0M5e000000e4VMEAY,868,
a0M5e000000e4VNEAY,869,
a0M5e000000e4VOEAY,870,
a0M5e000000e4VPEAY,871,
a0M5e000000e4VQEAY,872,
a0M5e000000e4VREAY,873,
a0M5e000000e4VSEAY,874,
a0M5e000000e4VTEAY,875,
a0M5e000000e4VUEAY,876,
a0M5e000000e4NNEAY,1675,
a0M5e000000e4NOEAY,1677,
a0M5e000000e4NPEAY,1570,
a0M5e000000e4NQEAY,1573,
a0M5e000000e4NREAY,1574,
a0M5e000000e4NSEAY,1575,
a0M5e000000e4NTEAY,1576,
a0M5e000000e4NUEAY,1577,
a0M5e000000e4NVEAY,1578,
a0M5e000000e4NWEAY,1579,
a0M5e000000e4NXEAY,1580,
a0M5e000000e4NYEAY,1581,
a0M5e000000e4NZEAY,1582,
a0M5e000000e4NaEAI,1583,
a0M5e000000e4NbEAI,1584,
a0M5e000000e4NMEAY,1676,
a0M5e000000e4NcEAI,1585,
a0M5e000000e4NdEAI,1586,
a0M5e000000e4NeEAI,1587,
a0M5e000000e4NfEAI,1588,"{{IF=""A""}}{{COND=""A"" FIELD=""LLC_BI__Loan__c.LLC_BI__Application__r.nPortal__Status__c"" IS=""Offers Available""}}{{SHOW_ROUTE}}{{ENDIF}}"
a0M5e000000e4NgEAI,1589,
a0M5e000000e4NhEAI,1590,
a0M5e000000e4NiEAI,1591,
a0M5e000000e4NjEAI,1592,
a0M5e000000e4NkEAI,1593,
a0M5e000000e4NlEAI,1594,"{{IF=""A""}}{{COND=""A"" FIELD=""LLC_BI__Application__c.nPortal__Applicant__r.Contact.LLC_BI__Id_Scan_Status__c"" NOT=""ID Scan Success""}}{{SHOW_ROUTE}}{{ENDIF}}"
a0M5e000000e4NmEAI,1595,"{{IF=""A""}}{{COND=""A"" FIELD=""LLC_BI__Loan__c.LLC_BI__Application__r.nPortal__Status__c"" IS=""Offers Available""}}{{SHOW_ROUTE}}{{ENDIF}}"
a0M5e000000e4NnEAI,1596,
a0M5e000000e4NoEAI,1597,
a0M5e000000e4NpEAI,1598,
a0M5e000000e4NqEAI,1599,
a0M5e000000e4VWEAY,878,
a0M5e000000e4VXEAY,879,
a0M5e000000e4VYEAY,880,
a0M5e000000e4VZEAY,881,
a0M5e000000e4VaEAI,882,
a0M5e000000e4VbEAI,883,
a0M5e000000e4VcEAI,884,
a0M5e000000e4VdEAI,1016,
a0M5e000000e4VeEAI,1017,
a0M5e000000e4VfEAI,1018,
a0M5e000000e4VgEAI,1059,"{{IF=""A OR B""}}{{COND=""A"" FIELD=""Account.Type"" IS=""Financial Institution""}}{{COND=""B"" FIELD=""Account.Type” IS=""Institutional Investor""}}{{SHOW_ROUTE}}{{ENDIF}}"
a0M5e000000e4VhEAI,1060,
a0M5e000000e4ViEAI,1264,
a0M5e000000e4VjEAI,1265,
a0M5e000000e4VkEAI,1266,
a0M5e000000e4VVEAY,877,
a0M5e000000e4VlEAI,1267,
a0M5e000000e4VmEAI,1268,
a0M5e000000e4VnEAI,1270,
a0M5e000000e4VoEAI,1272,
a0M5e000000e4VpEAI,1273,
a0M5e000000e4VqEAI,1274,
a0M5e000000e4VrEAI,1275,
a0M5e000000e4VsEAI,1276,
a0M5e000000e4VtEAI,1277,
a0M5e000000e4VuEAI,1278,
a0M5e000000e4VvEAI,1279,
a0M5e000000e4VwEAI,1280,
a0M5e000000e4VxEAI,1281,
a0M5e000000e4VyEAI,1282,
a0M5e000000e4VzEAI,1283,
a0M5e000000e4W0EAI,1284,
a0M5e000000e4W1EAI,1285,
a0M5e000000e4NsEAI,1601,
a0M5e000000e4NtEAI,1602,
a0M5e000000e4NuEAI,1604,
a0M5e000000e4NvEAI,1605,
a0M5e000000e4NwEAI,1607,
a0M5e000000e4NxEAI,1608,
a0M5e000000e4NyEAI,1609,
a0M5e000000e4NzEAI,1610,
a0M5e000000e4O0EAI,1611,
a0M5e000000e4O1EAI,1612,
a0M5e000000e4O2EAI,1613,
a0M5e000000e4O3EAI,1614,
a0M5e000000e4O4EAI,1615,
a0M5e000000e4O5EAI,1616,
a0M5e000000e4O6EAI,1617,
a0M5e000000e4NrEAI,1600,
a0M5e000000e4O7EAI,1618,
a0M5e000000e4O8EAI,1619,
a0M5e000000e4O9EAI,1622,
a0M5e000000e4OAEAY,1623,
a0M5e000000e4OBEAY,1624,
a0M5e000000e4OCEAY,1625,
a0M5e000000e4ODEAY,1626,"{{IF=""A""}}{{COND=""A"" FIELD=""LLC_BI__Loan__c.Broker_True__c"" IS=""FALSE""}}{{SHOW_ROUTE}}{{ENDIF}}"
a0M5e000000e4OEEAY,1627,
a0M5e000000e4OFEAY,1628,
a0M5e000000e4OGEAY,1629,
a0M5e000000e4OHEAY,1630,
a0M5e000000e4OIEAY,1631,
a0M5e000000e4OJEAY,1632,
a0M5e000000e4OKEAY,1633,
a0M5e000000e4OLEAY,1634,
a0M5e000000e4OMEAY,1635,
a0M5e000000e4ONEAY,1639,
a0M5e000000e4W3EAI,1287,
a0M5e000000e4W4EAI,1288,
a0M5e000000e4W5EAI,1289,
a0M5e000000e4W6EAI,1290,
a0M5e000000e4W7EAI,1291,
a0M5e000000e4W8EAI,1292,
a0M5e000000e4W9EAI,1293,
a0M5e000000e4WAEAY,1294,
a0M5e000000e4WBEAY,1295,
a0M5e000000e4WCEAY,1296,
a0M5e000000e4WDEAY,1297,
a0M5e000000e4WEEAY,1298,
a0M5e000000e4WFEAY,1299,
a0M5e000000e4WGEAY,1300,
a0M5e000000e4WHEAY,1301,
a0M5e000000e4W2EAI,1286,
a0M5e000000e4WIEAY,1302,
a0M5e000000e4WJEAY,1303,
a0M5e000000e4WKEAY,1304,
a0M5e000000e4WLEAY,1305,
a0M5e000000e4WMEAY,1306,
a0M5e000000e4WNEAY,1307,
a0M5e000000e4WOEAY,1308,
a0M5e000000e4WPEAY,1309,
a0M5e000000e4WQEAY,1310,
a0M5e000000e4WREAY,1311,
a0M5e000000e4WSEAY,1312,
a0M5e000000e4WTEAY,1313,
a0M5e000000e4WUEAY,1314,
a0M5e000000e4WVEAY,1315,
a0M5e000000e4WWEAY,1316,
a0M5e000000e4WXEAY,1317,
a0M5e000000e4WYEAY,1318,
a0M5e000000e4OPEAY,1641,
a0M5e000000e4OQEAY,1642,
a0M5e000000e4OREAY,1643,
a0M5e000000e4OSEAY,1644,
a0M5e000000e4OTEAY,1645,
a0M5e000000e4OUEAY,1646,
a0M5e000000e4OVEAY,1647,
a0M5e000000e4OWEAY,1648,
a0M5e000000e4OXEAY,1649,
a0M5e000000e4OYEAY,1650,"{{IF=""A""}}{{COND=""A"" FIELD=""Account.LLC_BI__Is_Individual__c"" IS=""1""}}{{SHOW_ROUTE}}{{ENDIF}}"
a0M5e000000e4OZEAY,1651,
a0M5e000000e4OaEAI,1652,
a0M5e000000e4ObEAI,1653,
a0M5e000000e4OcEAI,1654,
a0M5e000000e4OdEAI,1655,
a0M5e000000e4OOEAY,1640,
a0M5e000000e4OeEAI,1656,
a0M5e000000e4OfEAI,1657,
a0M5e000000e4OgEAI,1658,
a0M5e000000e4OhEAI,1659,
a0M5e000000e4OiEAI,1660,
a0M5e000000e4OjEAI,1661,
a0M5e000000e4OkEAI,1662,
a0M5e000000e4OlEAI,0,
a0M5e000000e4OmEAI,1,
a0M5e000000e4OnEAI,4,
a0M5e000000e4OoEAI,5,
a0M5e000000e4OpEAI,6,
a0M5e000000e4OqEAI,7,
a0M5e000000e4OrEAI,8,
a0M5e000000e4OsEAI,9,
a0M5e000000e4OtEAI,10,
a0M5e000000e4WaEAI,1320,
a0M5e000000e4WbEAI,1321,
a0M5e000000e4WcEAI,1322,
a0M5e000000e4WdEAI,1323,
a0M5e000000e4WeEAI,1324,
a0M5e000000e4WfEAI,1325,
a0M5e000000e4WgEAI,1326,
a0M5e000000e4WhEAI,1327,
a0M5e000000e4WiEAI,1328,"{{IF=""A""}}{{COND=""A"" FIELD=""LLC_BI__Product_Package__c.LLC_BI__Has_Syndicated_Loans__c"" IS=""TRUE""}}{{SHOW_ROUTE}}{{ENDIF}}"
a0M5e000000e4WjEAI,1329,
a0M5e000000e4WkEAI,1333,
a0M5e000000e4WlEAI,1334,
a0M5e000000e4WmEAI,1335,
a0M5e000000e4WnEAI,1336,
a0M5e000000e4WoEAI,1337,
a0M5e000000e4WZEAY,1319,
a0M5e000000e4WpEAI,1338,
a0M5e000000e4WqEAI,1339,
a0M5e000000e4WrEAI,1340,
a0M5e000000e4WsEAI,1341,
a0M5e000000e4WtEAI,1342,
a0M5e000000e4WuEAI,1343,
a0M5e000000e4WvEAI,1344,
a0M5e000000e4WwEAI,1345,
a0M5e000000e4WxEAI,1346,
a0M5e000000e4WyEAI,1347,
a0M5e000000e4WzEAI,1348,
a0M5e000000e4X0EAI,1349,
a0M5e000000e4X1EAI,1350,
a0M5e000000e4X2EAI,1351,
a0M5e000000e4X3EAI,1352,
a0M5e000000e4X4EAI,1353,
a0M5e000000e4X5EAI,1354,"{{IF=""A""}}{{COND=""A"" FIELD=""LLC_BI__Loan__c.Broker_True__c"" IS=""FALSE""}}{{SHOW_ROUTE}}{{ENDIF}}"
a0M5e000000e4OvEAI,12,
a0M5e000000e4OwEAI,13,
a0M5e000000e4OxEAI,14,
a0M5e000000e4OyEAI,15,
a0M5e000000e4OzEAI,16,
a0M5e000000e4P0EAI,17,
a0M5e000000e4P1EAI,18,
a0M5e000000e4P2EAI,19,
a0M5e000000e4P3EAI,20,
a0M5e000000e4P4EAI,21,
a0M5e000000e4P5EAI,22,
a0M5e000000e4P6EAI,24,
a0M5e000000e4P7EAI,25,
a0M5e000000e4P8EAI,26,
a0M5e000000e4P9EAI,27,
a0M5e000000e4OuEAI,11,
a0M5e000000e4PAEAY,29,
a0M5e000000e4PBEAY,30,
a0M5e000000e4PCEAY,31,
a0M5e000000e4PDEAY,32,
a0M5e000000e4PEEAY,33,
a0M5e000000e4PFEAY,34,"{{IF=""A""}}{{COND=""A"" FIELD=""LLC_BI__Loan__c.Is_Referral__c"" IS=TRUE}}{{SHOW_ROUTE}}{{ENDIF}}"
a0M5e000000e4PGEAY,35,"{{IF=""A""}}{{COND=""A"" FIELD=""LLC_BI__Loan__c.LLC_BI__Stage__c"" IS=""Booked""}}{{SHOW_ROUTE}}{{ENDIF}}"
a0M5e000000e4PHEAY,36,"{{IF=""A""}}{{COND=""A"" FIELD=""LLC_BI__Loan__c.LLC_BI__Stage__c"" IS=""Booked""}}{{SHOW_ROUTE}}{{ENDIF}}"
a0M5e000000e4PIEAY,37,
a0M5e000000e4PJEAY,38,
a0M5e000000e4PKEAY,39,
a0M5e000000e4PLEAY,41,
a0M5e000000e4PMEAY,42,
a0M5e000000e4PNEAY,43,
a0M5e000000e4POEAY,44,
a0M5e000000e4X7EAI,1356,
a0M5e000000e4X8EAI,1357,
a0M5e000000e4X9EAI,1358,
a0M5e000000e4XAEAY,1359,
a0M5e000000e4XBEAY,1360,
a0M5e000000e4XCEAY,1361,
a0M5e000000e4XDEAY,1362,
a0M5e000000e4XEEAY,1363,
a0M5e000000e4XFEAY,1364,
a0M5e000000e4XGEAY,1365,
a0M5e000000e4XHEAY,1366,
a0M5e000000e4XIEAY,1367,
a0M5e000000e4XJEAY,1368,
a0M5e000000e4XKEAY,1369,
a0M5e000000e4XLEAY,1370,
a0M5e000000e4X6EAI,1355,
a0M5e000000e4XMEAY,1371,
a0M5e000000e4XNEAY,1372,
a0M5e000000e4XOEAY,1373,
a0M5e000000e4XPEAY,1374,
a0M5e000000e4XQEAY,1375,
a0M5e000000e4XREAY,1376,
a0M5e000000e4XSEAY,1377,
a0M5e000000e4XTEAY,1378,
a0M5e000000e4XUEAY,1379,
a0M5e000000e4XVEAY,1380,
a0M5e000000e4XWEAY,1381,
a0M5e000000e4XXEAY,1382,
a0M5e000000e4XYEAY,1383,
a0M5e000000e4XZEAY,1384,
a0M5e000000e4XaEAI,1385,
a0M5e000000e4XbEAI,1386,
a0M5e000000e4XcEAI,1387,
a0M5e000000e4PQEAY,46,
a0M5e000000e4PREAY,47,
a0M5e000000e4PSEAY,48,
a0M5e000000e4PTEAY,49,
a0M5e000000e4PUEAY,50,
a0M5e000000e4PVEAY,51,
a0M5e000000e4PWEAY,52,"{{IF=""A""}}{{COND=""A"" FIELD=""LLC_BI__Loan__c.LLC_BI__HMDA_Record_Type__c"" IS=""HMDA-Effective-2017""}}{{SHOW_ROUTE}}{{ENDIF}}"
a0M5e000000e4PXEAY,53,"{{IF=""A""}}{{COND=""A"" FIELD=""LLC_BI__Loan__c.LLC_BI__HMDA_Record_Type__c"" IS=""HMDA-Effective-2017""}}{{SHOW_ROUTE}}{{ENDIF}}"
a0M5e000000e4PYEAY,54,"{{IF=""A""}}{{COND=""A"" FIELD=""LLC_BI__Loan__c.LLC_BI__HMDA_Record_Type__c"" IS=""HMDA-Effective-2017""}}{{SHOW_ROUTE}}{{ENDIF}}"
a0M5e000000e4PZEAY,55,"{{IF=""A""}}{{COND=""A"" FIELD=""LLC_BI__Loan__c.LLC_BI__HMDA_Record_Type__c"" IS=""HMDA-Effective-2018""}}{{SHOW_ROUTE}}{{ENDIF}}"
a0M5e000000e4PaEAI,56,"{{IF=""A""}}{{COND=""A"" FIELD=""LLC_BI__Loan__c.LLC_BI__HMDA_Record_Type__c"" IS=""HMDA-Effective-2018""}}{{SHOW_ROUTE}}{{ENDIF}}"
a0M5e000000e4PbEAI,57,"{{IF=""A""}}{{COND=""A"" FIELD=""LLC_BI__Loan__c.LLC_BI__HMDA_Record_Type__c"" IS=""HMDA-Effective-2018""}}{{SHOW_ROUTE}}{{ENDIF}}"
a0M5e000000e4PcEAI,58,
a0M5e000000e4PdEAI,59,
a0M5e000000e4PeEAI,60,"{{IF=""A""}}
{{COND=""A"" FIELD=""LLC_BI__Loan__c.Name"" IS=""John Doe""}}
{{ENDIF}}"
a0M5e000000e4PPEAY,45,
a0M5e000000e4PfEAI,61,
a0M5e000000e4PgEAI,62,
a0M5e000000e4PhEAI,63,
a0M5e000000e4PiEAI,64,
a0M5e000000e4PjEAI,65,
a0M5e000000e4PkEAI,66,
a0M5e000000e4PlEAI,67,
a0M5e000000e4PmEAI,68,
a0M5e000000e4PnEAI,69,
a0M5e000000e4PoEAI,70,
a0M5e000000e4PpEAI,71,
a0M5e000000e4PqEAI,72,
a0M5e000000e4PrEAI,73,
a0M5e000000e4PsEAI,74,
a0M5e000000e4XeEAI,1389,
a0M5e000000e4XfEAI,1390,
a0M5e000000e4XgEAI,1391,
a0M5e000000e4XhEAI,1392,
a0M5e000000e4XiEAI,1393,
a0M5e000000e4XjEAI,1394,
a0M5e000000e4XkEAI,1395,
a0M5e000000e4XlEAI,1396,
a0M5e000000e4XmEAI,1397,
a0M5e000000e4XnEAI,1398,
a0M5e000000e4XoEAI,1399,
a0M5e000000e4XpEAI,1400,
a0M5e000000e4XqEAI,1401,
a0M5e000000e4XrEAI,1402,
a0M5e000000e4XsEAI,1403,
a0M5e000000e4XdEAI,1388,
a0M5e000000e4XtEAI,1404,
a0M5e000000e4XuEAI,1405,
a0M5e000000e4XvEAI,1406,
a0M5e000000e4XwEAI,1407,
a0M5e000000e4XxEAI,1408,
a0M5e000000e4XyEAI,1409,
a0M5e000000e4XzEAI,1410,
a0M5e000000e4Y0EAI,1411,
a0M5e000000e4Y1EAI,1412,
a0M5e000000e4Y2EAI,1413,
a0M5e000000e4Y3EAI,1414,
a0M5e000000e4Y4EAI,1415,
a0M5e000000e4Y5EAI,1416,
a0M5e000000e4Y6EAI,1417,
a0M5e000000e4Y7EAI,1418,"{{IF=""A""}}{{COND=""A"" FIELD=""LLC_BI__Loan__c.LLC_BI__Is_Lease__c"" IS=""true""}}{{SHOW_ROUTE}}{{ENDIF}}"
a0M5e000000e4Y8EAI,1419,"{{IF=""A""}}{{COND=""A"" FIELD=""LLC_BI__Loan__c.LLC_BI__Is_Lease__c"" IS=""true""}}{{SHOW_ROUTE}}{{ENDIF}}"
a0M5e000000e4PuEAI,76,
a0M5e000000e4PvEAI,77,
a0M5e000000e4PwEAI,81,
a0M5e000000e4PxEAI,82,
a0M5e000000e4PyEAI,83,
a0M5e000000e4PzEAI,86,
a0M5e000000e4Q0EAI,87,
a0M5e000000e4Q1EAI,88,
a0M5e000000e4Q2EAI,89,
a0M5e000000e4Q3EAI,169,"{{IF=""A""}}{{COND=""A"" FIELD=""LLC_BI__Loan__c.LLC_BI__Product_Reference__r.LLC_BI__Product_Feature__r.LLC_BI__Is_Budget_Item__c"" IS=""true""}}{{SHOW_ROUTE}}{{ENDIF}}"
a0M5e000000e4Q4EAI,170,"{{IF=""A""}}{{COND=""A"" FIELD=""LLC_BI__Loan__c.LLC_BI__Product_Reference__r.LLC_BI__Product_Feature__r.LLC_BI__Is_Budget_Item__c"" IS=""true""}}{{SHOW_ROUTE}}{{ENDIF}}"
a0M5e000000e4Q5EAI,171,"{{IF=""A""}}{{COND=""A"" FIELD=""LLC_BI__Loan__c.LLC_BI__Product_Reference__r.LLC_BI__Product_Feature__r.LLC_BI__Is_Budget_Item__c"" IS=""true""}}{{SHOW_ROUTE}}{{ENDIF}}"
a0M5e000000e4Q6EAI,172,"{{IF=""A""}}{{COND=""A"" FIELD=""LLC_BI__Loan__c.LLC_BI__Product_Reference__r.LLC_BI__Product_Feature__r.LLC_BI__Is_Budget_Item__c"" IS=""true""}}{{SHOW_ROUTE}}{{ENDIF}}"
a0M5e000000e4Q7EAI,173,"{{IF=""A""}}{{COND=""A"" FIELD=""LLC_BI__Loan__c.LLC_BI__Product_Reference__r.LLC_BI__Product_Feature__r.LLC_BI__Is_Budget_Item__c"" IS=""true""}}{{SHOW_ROUTE}}{{ENDIF}}"
a0M5e000000e4Q8EAI,174,"{{IF=""A""}}{{COND=""A"" FIELD=""LLC_BI__Loan__c.LLC_BI__Product_Reference__r.LLC_BI__Product_Feature__r.LLC_BI__Is_Budget_Item__c"" IS=""true""}}{{SHOW_ROUTE}}{{ENDIF}}"
a0M5e000000e4PtEAI,75,
a0M5e000000e4Q9EAI,198,
a0M5e000000e4QAEAY,199,
a0M5e000000e4QBEAY,200,
a0M5e000000e4QCEAY,202,
a0M5e000000e4QDEAY,204,
a0M5e000000e4QEEAY,207,
a0M5e000000e4QFEAY,213,
a0M5e000000e4QGEAY,214,
a0M5e000000e4QHEAY,226,
a0M5e000000e4QIEAY,227,
a0M5e000000e4QJEAY,321,
a0M5e000000e4QKEAY,322,
a0M5e000000e4YAEAY,1421,"{{IF=""A""}}{{COND=""A"" FIELD=""LLC_BI__Product_Package__c.LLC_BI__Has_Leases__c"" IS=""TRUE""}}{{SHOW_ROUTE}}{{ENDIF}}"
a0M5e000000e4YBEAY,1422,"{{IF=""A""}}{{COND=""A"" FIELD=""LLC_BI__Loan__c.LLC_BI__Is_Lease__c"" IS=""true""}}{{SHOW_ROUTE}}{{ENDIF}}"
a0M5e000000e4YCEAY,1423,
a0M5e000000e4YDEAY,1428,
a0M5e000000e4YEEAY,1430,
a0M5e000000e4YFEAY,1429,
a0M5e000000e4YGEAY,1431,
a0M5e000000e4YHEAY,1432,
a0M5e000000e4YIEAY,1434,
a0M5e000000e4YJEAY,1435,
a0M5e000000e4YKEAY,1436,
a0M5e000000e4YLEAY,1437,"{{IF=""A OR B""}}{{COND=""A""FIELD=""LLC_BI__Loan__c.LLC_BI__Status__c""IS=""Declined""}}{{COND=""B""FIELD=""LLC_BI__Loan__c.LLC_BI__Status__c""IS=""Withdrawn""}}{{SHOW_ROUTE}}{{ENDIF}}"
a0M5e000000e4YMEAY,1438,"{{IF=""A""}}{{COND=""A"" FIELD=""LLC_BI__Loan__c.Broker_True__c"" IS=""FALSE""}}{{SHOW_ROUTE}}{{ENDIF}}"
a0M5e000000e4YNEAY,1439,
a0M5e000000e4YOEAY,1440,
a0M5e000000e4Y9EAI,1420,"{{IF=""A""}}{{COND=""A"" FIELD=""LLC_BI__Product_Package__c.LLC_BI__Has_Leases__c"" IS=""TRUE""}}{{SHOW_ROUTE}}{{ENDIF}}"
a0M5e000000e4YPEAY,1441,
a0M5e000000e4YQEAY,1442,
a0M5e000000e4YREAY,1443,
a0M5e000000e4YSEAY,1444,
a0M5e000000e4YTEAY,1445,
a0M5e000000e4YUEAY,1446,
a0M5e000000e4YVEAY,1447,
a0M5e000000e4YWEAY,1448,
a0M5e000000e4YXEAY,1449,
a0M5e000000e4YYEAY,1450,
a0M5e000000e4YZEAY,1451,
a0M5e000000e4YaEAI,1452,
a0M5e000000e4YbEAI,1453,
a0M5e000000e4YcEAI,1454,
a0M5e000000e4YdEAI,1455,
a0M5e000000e4QMEAY,1064,
a0M5e000000e4QNEAY,1065,
a0M5e000000e4QOEAY,1066,
a0M5e000000e4QPEAY,1067,
a0M5e000000e4QQEAY,1109,
a0M5e000000e4QREAY,1111,
a0M5e000000e4QSEAY,1152,
a0M5e000000e4QTEAY,1153,
a0M5e000000e4QUEAY,1154,
a0M5e000000e4QVEAY,1157,
a0M5e000000e4QWEAY,1160,"{{IF=""A""}}{{COND=""A"" FIELD=""LLC_BI__Loan__c.Broker_True__c"" IS=""FALSE""}}{{SHOW_ROUTE}}{{ENDIF}}"
a0M5e000000e4QXEAY,1162,"{{IF=""A""}}{{COND=""A"" FIELD=""LLC_BI__Loan__c.Broker_True__c"" IS=""FALSE""}}{{SHOW_ROUTE}}{{ENDIF}}"
a0M5e000000e4QYEAY,1164,"{{IF=""A""}}{{COND=""A"" FIELD=""LLC_BI__Loan__c.Broker_True__c"" IS=""FALSE""}}{{SHOW_ROUTE}}{{ENDIF}}"
a0M5e000000e4QZEAY,1166,"{{IF=""A""}}{{COND=""A"" FIELD=""LLC_BI__Loan__c.Broker_True__c"" IS=""FALSE""}}{{SHOW_ROUTE}}{{ENDIF}}"
a0M5e000000e4QaEAI,1167,
a0M5e000000e4QLEAY,323,
a0M5e000000e4QbEAI,1168,
a0M5e000000e4QcEAI,1169,
a0M5e000000e4QdEAI,1171,
a0M5e000000e4QeEAI,1172,
a0M5e000000e4QfEAI,1173,
a0M5e000000e4QgEAI,1174,"{{IF=""A""}}{{COND=""A"" FIELD=""LLC_BI__Loan__c.Broker_True__c"" IS=""FALSE""}}{{SHOW_ROUTE}}{{ENDIF}}"
a0M5e000000e4QhEAI,1177,
a0M5e000000e4QiEAI,1178,
a0M5e000000e4QjEAI,1179,"{{IF=""A""}}{{COND=""A"" FIELD=""LLC_BI__Loan__c.LLC_BI__Product_Reference__r.LLC_BI__Product_Feature__r.LLC_BI__Balloon_Product_Structure__c"" IS=""Balloon Amount""}}{{SHOW_ROUTE}}{{ENDIF}}"
a0M5e000000e4QkEAI,1180,
a0M5e000000e4QlEAI,1181,
a0M5e000000e4QmEAI,1182,
a0M5e000000e4QnEAI,1196,
a0M5e000000e4QoEAI,1197,
a0M5e000000e4YfEAI,1457,
a0M5e000000e4YgEAI,1458,
a0M5e000000e4YhEAI,1459,
a0M5e000000e4YiEAI,1460,
a0M5e000000e4YjEAI,1461,
a0M5e000000e4YkEAI,1462,
a0M5e000000e4YlEAI,1463,
a0M5e000000e4YmEAI,1464,
a0M5e000000e4YnEAI,1465,
a0M5e000000e4YoEAI,1466,
a0M5e000000e4YpEAI,1467,
a0M5e000000e4YqEAI,1468,
a0M5e000000e4YrEAI,1469,
a0M5e000000e4YsEAI,1470,
a0M5e000000e4YtEAI,1471,
a0M5e000000e4YeEAI,1456,
a0M5e000000e4YuEAI,1472,
a0M5e000000e4YvEAI,1473,
a0M5e000000e4YwEAI,1474,
a0M5e000000e4YxEAI,1475,
a0M5e000000e4YyEAI,1476,
a0M5e000000e4YzEAI,1477,
a0M5e000000e4Z0EAI,1478,
a0M5e000000e4Z1EAI,1479,
a0M5e000000e4Z2EAI,1480,
a0M5e000000e4Z3EAI,1481,
a0M5e000000e4Z4EAI,1482,
a0M5e000000e4Z5EAI,1483,
a0M5e000000e4Z6EAI,1484,
a0M5e000000e4Z7EAI,1485,
a0M5e000000e4Z8EAI,1486,
a0M5e000000e4Z9EAI,1487,
a0M5e000000e4ZAEAY,1488,
a0M5e000000e4QqEAI,1199,
a0M5e000000e4QrEAI,1200,
a0M5e000000e4QsEAI,1201,
a0M5e000000e4QtEAI,1202,
a0M5e000000e4QuEAI,1203,
a0M5e000000e4QvEAI,1204,
a0M5e000000e4QwEAI,1205,
a0M5e000000e4QxEAI,1206,
a0M5e000000e4QyEAI,1208,
a0M5e000000e4QzEAI,1210,
a0M5e000000e4R0EAI,1211,
a0M5e000000e4R1EAI,1212,
a0M5e000000e4R2EAI,1213,
a0M5e000000e4R3EAI,1214,
a0M5e000000e4R4EAI,1215,
a0M5e000000e4QpEAI,1198,
a0M5e000000e4R5EAI,1216,
a0M5e000000e4R6EAI,1217,
a0M5e000000e4R7EAI,1218,
a0M5e000000e4R8EAI,1219,
a0M5e000000e4R9EAI,1220,
a0M5e000000e4RAEAY,1221,
a0M5e000000e4RBEAY,1222,
a0M5e000000e4RCEAY,1223,
a0M5e000000e4RDEAY,1224,
a0M5e000000e4REEAY,1225,
a0M5e000000e4RFEAY,1226,
a0M5e000000e4RGEAY,1227,
a0M5e000000e4RHEAY,1228,
a0M5e000000e4RIEAY,1229,
a0M5e000000e4RJEAY,1230,
a0M5e000000e4RKEAY,1231,
a0M5e000000e4RLEAY,1232,
a0M5e000000e4RMEAY,1233,
a0M5e000000e4ZCEAY,1490,
a0M5e000000e4ZDEAY,1491,
a0M5e000000e4ZEEAY,1492,
a0M5e000000e4ZFEAY,1493,
a0M5e000000e4ZGEAY,1494,
a0M5e000000e4ZHEAY,1495,
a0M5e000000e4ZIEAY,1496,
a0M5e000000e4ZJEAY,1497,
a0M5e000000e4ZKEAY,1498,
a0M5e000000e4ZLEAY,1499,
a0M5e000000e4ZMEAY,1503,
a0M5e000000e4ZNEAY,1504,"{{IF=""A AND B""}}{{COND=""A"" FIELD=""LLC_BI__Loan__c.LLC_BI__Amount__c"" GREATER=""50000""}}{{COND=""B"" FIELD=""LLC_BI__Loan__c.LLC_BI__Application__r.nPORTAL__Applicant__r.Contact.LLC_BI__Annual_Income__c"" LESS=""100000""}}{{SHOW_ROUTE}}{{ENDIF}}"
a0M5e000000e4ZOEAY,1506,
a0M5e000000e4ZPEAY,1508,
a0M5e000000e4ZQEAY,1509,
a0M5e000000e4ZBEAY,1489,
a0M5e000000e4ZREAY,1510,
a0M5e000000e4ZSEAY,1511,
a0M5e000000e4ZTEAY,1513,
a0M5e000000e4ZUEAY,1515,
a0M5e000000e4ZVEAY,1516,
a0M5e000000e4ZWEAY,1517,
a0M5e000000e4ZXEAY,1518,
a0M5e000000e4ZYEAY,1519,
a0M5e000000e4ZZEAY,1524,
a0M5e000000e4ZaEAI,1525,
a0M5e000000e4ZbEAI,1528,
a0M5e000000e4ZcEAI,1529,
a0M5e000000e4ZdEAI,1530,
a0M5e000000e4ZeEAI,1531,
a0M5e000000e4ZfEAI,1532,
a0M5e000000e4ZgEAI,1533,
a0M5e000000e4ZhEAI,1534,
a0M5e000000e4ROEAY,1235,
a0M5e000000e4RPEAY,1236,
a0M5e000000e4RQEAY,1237,
a0M5e000000e4RREAY,1238,
a0M5e000000e4RSEAY,1239,
a0M5e000000e4RTEAY,1240,
a0M5e000000e4RUEAY,1241,
a0M5e000000e4RVEAY,1242,
a0M5e000000e4RWEAY,1243,
a0M5e000000e4RXEAY,1244,
a0M5e000000e4RYEAY,1245,
a0M5e000000e4RZEAY,1246,
a0M5e000000e4RaEAI,1247,
a0M5e000000e4RbEAI,1248,
a0M5e000000e4RcEAI,1249,
a0M5e000000e4RNEAY,1234,
a0M5e000000e4RdEAI,1250,
a0M5e000000e4ReEAI,1251,
a0M5e000000e4RfEAI,1252,
a0M5e000000e4RgEAI,1253,
a0M5e000000e4RhEAI,1254,"{{IF=""A""}}{{COND=""A"" FIELD=""LLC_BI__Product_Package__c.LLC_BI__Has_Syndicated_Loans__c"" IS=""TRUE""}}{{SHOW_ROUTE}}{{ENDIF}}"
a0M5e000000e4RiEAI,1255,
a0M5e000000e4RjEAI,1260,
a0M5e000000e4RkEAI,365,
a0M5e000000e4RlEAI,366,
a0M5e000000e4RmEAI,367,
a0M5e000000e4RnEAI,368,
a0M5e000000e4RoEAI,369,
a0M5e000000e4RpEAI,370,
a0M5e000000e4RqEAI,371,
a0M5e000000e4RrEAI,372,
a0M5e000000e4RsEAI,373,
a0M5e000000e4RtEAI,374,
a0M5e000000e4ZjEAI,1536,
a0M5e000000e4ZkEAI,1538,
a0M5e000000e4ZlEAI,1539,
a0M5e000000e4ZmEAI,1542,
a0M5e000000e4ZnEAI,1543,
a0M5e000000e4ZoEAI,1544,
a0M5e000000e4ZpEAI,1546,
a0M5e000000e4ZqEAI,1547,
a0M5e000000e4ZrEAI,1548,
a0M5e000000e4ZsEAI,1553,
a0M5e000000e4ZtEAI,1554,
a0M5e000000e4ZuEAI,1556,
a0M5e000000e4ZvEAI,1557,
a0M5e000000e4ZwEAI,1558,
a0M5e000000e4ZxEAI,1559,
a0M5e000000e4ZiEAI,1535,
a0M5e000000e4ZyEAI,1562,
a0M5e000000e4ZzEAI,1563,
a0M5e000000e4a0EAA,1564,
a0M5e000000e4a1EAA,1566,
a0M5e000000e4a2EAA,1567,
a0M5e000000e4a3EAA,1568,
a0M5e000000e4a4EAA,1569,
a0M5e000000e4RvEAI,376,
a0M5e000000e4RwEAI,377,
a0M5e000000e4RxEAI,378,
a0M5e000000e4RyEAI,379,
a0M5e000000e4RzEAI,380,
a0M5e000000e4S0EAI,381,
a0M5e000000e4S1EAI,382,
a0M5e000000e4S2EAI,383,
a0M5e000000e4S3EAI,384,
a0M5e000000e4S4EAI,385,
a0M5e000000e4S5EAI,386,
a0M5e000000e4S6EAI,387,
a0M5e000000e4S7EAI,388,
a0M5e000000e4S8EAI,389,
a0M5e000000e4S9EAI,390,"{{IF=""A""}}{{COND=""A"" FIELD=""LLC_BI__Loan__c.LLC_BI__HMDA_Record_Type__c"" IS=""HMDA-Effective-2017""}}{{SHOW_ROUTE}}{{ENDIF}}"
a0M5e000000e4RuEAI,375,
a0M5e000000e4SAEAY,391,"{{IF=""A""}}{{COND=""A"" FIELD=""LLC_BI__Loan__c.LLC_BI__HMDA_Record_Type__c"" IS=""HMDA-Effective-2017""}}{{SHOW_ROUTE}}{{ENDIF}}"
a0M5e000000e4SBEAY,392,"{{IF=""A""}}{{COND=""A"" FIELD=""LLC_BI__Loan__c.LLC_BI__HMDA_Record_Type__c"" IS=""HMDA-Effective-2017""}}{{SHOW_ROUTE}}{{ENDIF}}"
a0M5e000000e4SCEAY,393,"{{IF=""A""}}{{COND=""A"" FIELD=""LLC_BI__Loan__c.LLC_BI__HMDA_Record_Type__c"" IS=""HMDA-Effective-2018""}}{{SHOW_ROUTE}}{{ENDIF}}"
a0M5e000000e4SDEAY,394,"{{IF=""A""}}{{COND=""A"" FIELD=""LLC_BI__Loan__c.LLC_BI__HMDA_Record_Type__c"" IS=""HMDA-Effective-2018""}}{{SHOW_ROUTE}}{{ENDIF}}"
a0M5e000000e4SEEAY,395,"{{IF=""A""}}{{COND=""A"" FIELD=""LLC_BI__Loan__c.LLC_BI__HMDA_Record_Type__c"" IS=""HMDA-Effective-2018""}}{{SHOW_ROUTE}}{{ENDIF}}"
a0M5e000000e4SFEAY,396,
a0M5e000000e4SGEAY,397,
a0M5e000000e4SHEAY,398,
a0M5e000000e4SIEAY,399,
a0M5e000000e4SJEAY,400,
a0M5e000000e4SKEAY,401,
a0M5e000000e4SLEAY,402,
a0M5e000000e4SMEAY,403,
a0M5e000000e4SNEAY,404,
a0M5e000000e4SOEAY,405,
a0M5e000000e4SPEAY,406,
a0M5e000000e4SREAY,408,
a0M5e000000e4SSEAY,409,
a0M5e000000e4STEAY,410,
a0M5e000000e4SUEAY,411,
a0M5e000000e4SVEAY,412,
a0M5e000000e4SWEAY,413,
a0M5e000000e4SXEAY,414,
a0M5e000000e4SYEAY,415,
a0M5e000000e4SZEAY,417,
a0M5e000000e4SaEAI,418,
a0M5e000000e4SbEAI,419,
a0M5e000000e4ScEAI,420,
a0M5e000000e4SdEAI,425,
a0M5e000000e4SeEAI,426,"{{IF=""A""}}{{COND=""A"" FIELD=""LLC_BI__Loan__c.LLC_BI__Product_Reference__r.LLC_BI__Product_Feature__r.LLC_BI__Is_Budget_Item__c"" IS=""true""}}{{SHOW_ROUTE}}{{ENDIF}}"
a0M5e000000e4SfEAI,427,"{{IF=""A""}}{{COND=""A"" FIELD=""LLC_BI__Loan__c.LLC_BI__Product_Reference__r.LLC_BI__Product_Feature__r.LLC_BI__Is_Budget_Item__c"" IS=""true""}}{{SHOW_ROUTE}}{{ENDIF}}"
a0M5e000000e4SQEAY,407,
a0M5e000000e4SgEAI,428,"{{IF=""A""}}{{COND=""A"" FIELD=""LLC_BI__Loan__c.LLC_BI__Product_Reference__r.LLC_BI__Product_Feature__r.LLC_BI__Is_Budget_Item__c"" IS=""true""}}{{SHOW_ROUTE}}{{ENDIF}}"
a0M5e000000e4ShEAI,429,"{{IF=""A""}}{{COND=""A"" FIELD=""LLC_BI__Loan__c.LLC_BI__Product_Reference__r.LLC_BI__Product_Feature__r.LLC_BI__Is_Budget_Item__c"" IS=""true""}}{{SHOW_ROUTE}}{{ENDIF}}"
a0M5e000000e4SiEAI,430,"{{IF=""A""}}{{COND=""A"" FIELD=""LLC_BI__Loan__c.LLC_BI__Product_Reference__r.LLC_BI__Product_Feature__r.LLC_BI__Is_Budget_Item__c"" IS=""true""}}{{SHOW_ROUTE}}{{ENDIF}}"
a0M5e000000e4SjEAI,431,"{{IF=""A""}}{{COND=""A"" FIELD=""LLC_BI__Loan__c.LLC_BI__Product_Reference__r.LLC_BI__Product_Feature__r.LLC_BI__Is_Budget_Item__c"" IS=""true""}}{{SHOW_ROUTE}}{{ENDIF}}"
a0M5e000000e4SkEAI,469,
a0M5e000000e4SlEAI,470,
a0M5e000000e4SmEAI,471,
a0M5e000000e4SnEAI,515,
a0M5e000000e4SoEAI,516,
a0M5e000000e4SpEAI,517,
a0M5e000000e4SqEAI,518,
a0M5e000000e4SrEAI,519,
a0M5e000000e4SsEAI,520,
a0M5e000000e4StEAI,529,
a0M5e000000e4SvEAI,537,
a0M5e000000e4SwEAI,539,
a0M5e000000e4SxEAI,540,
a0M5e000000e4SyEAI,580,
a0M5e000000e4SzEAI,581,
a0M5e000000e4T0EAI,582,
a0M5e000000e4T1EAI,583,
a0M5e000000e4T2EAI,584,
a0M5e000000e4T3EAI,585,
a0M5e000000e4T4EAI,586,
a0M5e000000e4T5EAI,587,
a0M5e000000e4T6EAI,588,
a0M5e000000e4T7EAI,589,
a0M5e000000e4T8EAI,590,
a0M5e000000e4T9EAI,591,
a0M5e000000e4SuEAI,530,
a0M5e000000e4TAEAY,592,
a0M5e000000e4TBEAY,593,
a0M5e000000e4TCEAY,594,
a0M5e000000e4TDEAY,595,
a0M5e000000e4TEEAY,596,
a0M5e000000e4TFEAY,597,
a0M5e000000e4TGEAY,598,
a0M5e000000e4THEAY,599,
a0M5e000000e4TIEAY,600,
a0M5e000000e4TJEAY,601,
a0M5e000000e4TKEAY,602,
a0M5e000000e4TLEAY,603,
a0M5e000000e4TMEAY,604,
a0M5e000000e4TNEAY,605,
a0M5e000000e4TOEAY,606,
a0M5e000000e4TPEAY,607,
a0M5e000000e4TQEAY,608,
a0M5e000000e4TSEAY,610,
a0M5e000000e4TTEAY,611,
a0M5e000000e4TUEAY,612,
a0M5e000000e4TVEAY,613,
a0M5e000000e4TWEAY,614,
a0M5e000000e4TXEAY,615,
a0M5e000000e4TYEAY,616,
a0M5e000000e4TZEAY,617,
a0M5e000000e4TaEAI,618,
a0M5e000000e4TbEAI,620,
a0M5e000000e4TeEAI,625,
a0M5e000000e4TgEAI,629,
a0M5e000000e4TREAY,609,
a0M5e000000e4ThEAI,630,
a0M5e000000e4TiEAI,632,
a0M5e000000e4TjEAI,672,
a0M5e000000e4TkEAI,673,
a0M5e000000e4TlEAI,674,
a0M5e000000e4TmEAI,675,
a0M5e000000e4TnEAI,676,
a0M5e000000e4ToEAI,677,
a0M5e000000e4TpEAI,678,
a0M5e000000e4TqEAI,679,
a0M5e000000e4TrEAI,680,
a0M5e000000e4TsEAI,681,
a0M5e000000e4TtEAI,682,
a0M5e000000e4TuEAI,683,
a0M5e000000e4TvEAI,684,
a0M5e000000e4TwEAI,685,
a0M5e000000e4TxEAI,686,
